<?xml version="1.0" standalone="no"?>
<!DOCTYPE svg PUBLIC "-//W3C//DTD SVG 1.1//EN" "http://www.w3.org/Graphics/SVG/1.1/DTD/svg11.dtd">
<svg xmlns="http://www.w3.org/2000/svg">
<metadata>Generated by Fontastic.me</metadata>
<defs>
<font id="untitled-font-6" horiz-adv-x="512">
<font-face font-family="untitled-font-6" units-per-em="512" ascent="480" descent="-32"/>
<missing-glyph horiz-adv-x="512" />

<glyph glyph-name="home" unicode="&#97;" d="M0 285c0-15-1-24 12-35 14-12 26-9 46-9 0-7-7-30-7-58 0-53 3-103 27-144 16-28 74-39 105-39-2 6-2 116-1 130 3 27 16 49 38 60 21 11 59 10 79-1 26-13 36-38 36-71 0-21 3-102-1-118 33 0 90 11 106 39 26 47 33 130 22 188-1 4-3 8-3 14l17 0c17 0 36 16 36 34l0 1c-1 21-1 29-24 46-11 9-21 21-32 29-18 14-73 69-95 86l-48 43c-19 16-25 32-61 32-26 0-31-11-41-19-3-3-4-3-8-7-3-2-4-4-7-7l-171-158c-9-9-25-18-25-36z"/>
<glyph glyph-name="konten" unicode="&#98;" d="M247 249c0 97 131 128 175 40 27-55-10-131-84-131-50 0-91 42-91 91z m-247 66c0-8 6-14 14-15 19-1 63 0 85 0 38 0 76 0 114 0-3-14-9-23-9-50 0-6 1-24 3-28l-167 0c-18 0-40 3-40-15 0-18 28-14 44-14 57 0 114 0 172 0 3-5 5-10 9-15 34-55 105-79 169-51 7 2 11 4 15 8l42-42c12-14 14-21 36-21 14 0 25 13 25 32 0 9-6 15-11 20l-16 18c-6 5-13 11-17 16-3 4-5 5-8 9-3 3-6 5-8 9 60 90-8 209-113 209-45 0-77-20-104-49-7-9-2-8-18-8l-179 0c-12 0-38 5-38-13z m15 125l371 0c8 0 15-7 15-15 0-8-7-14-15-14l-371 0c-8 0-15 6-15 14 0 8 7 15 15 15z"/>
<glyph glyph-name="notif" unicode="&#99;" d="M212 472c-10 0-28-11-36-15-35-16-65-44-81-78-12-27-18-51-18-89 0-37 0-71 0-107-12-2-26-6-37-17-12-10-14-24-16-38l0-38 461 0 0 36c-2 22-8 42-32 53-4 2-16 4-23 4 0 34 0 70 0 105 0 62-16 109-62 149-16 12-53 35-73 35 0 12-6 22-10 28-2 0 0 0-4 2l-8 6c-4 2-10 4-14 4l-8 0c-19-2-37-18-39-40z m37-469c22 0 36 4 54 18 8 6 24 26 24 38l-145 0c0-24 36-56 67-56z"/>
<glyph glyph-name="profil" unicode="&#100;" d="M56 73c-15 0-23 0-33-8-8-5-13-15-13-26l0-5c0-15 13-33 36-33l421 0c33 0 49 46 18 66-8 6-18 6-31 6-2 7-18 46-23 56l-26 51c-5 11-7 18-15 26-13 21-36 54-64 54l-141 0c-47 0-101-121-116-159-5-8-8-21-13-28z m82 323c0-20 5-36 13-51 10-26 34-49 59-59 82-36 167 23 167 108 0 33-15 64-33 82-28 28-54 36-95 36-13 0-34-8-44-13-38-18-67-59-67-103z"/>
</font></defs></svg>
